…
# Data set cleaned.
approval_polllist_clean <- approval_polllist %>%
    select(c(enddate, samplesize, adjusted_approve, adjusted_disapprove)) %>% 
    mutate(approval_difference = adjusted_approve - adjusted_disapprove)
approval_polllist_clean

## # A tibble: 14,533 x 5
##    enddate   samplesize adjusted_approve adjusted_disapprove approval_difference
##    <chr>          <dbl>            <dbl>               <dbl>               <dbl>
##  1 1/22/2017       1500             45.8                43.6               2.18 
##  2 1/22/2017       1992             45.3                37.8               7.44 
##  3 1/24/2017       1632             43.2                43.9              -0.659
##  4 1/23/2017       1500             45.8                44.6               1.18 
##  5 1/24/2017       1500             46.8                43.6               3.18 
##  6 1/24/2017       1500             51.6                44.4               7.15 
##  7 1/25/2017       1651             43.4                44.5              -1.06 
##  8 1/25/2017       1190             37.7                42.8              -5.08 
##  9 1/25/2017       2692             41.9                36.9               4.99 
## 10 1/26/2017       1678             43.7                45.1              -1.36 
## # ... with 14,523 more rows
…
## `summarise()` regrouping output by 'year' (override with `.groups` argument)

Trump_Approval

## # A tibble: 191 x 8
## # Groups:   year [4]
##     year  week Weekly_differen~ avg_difference se_Trump t_crit lower_CIs
##    <dbl> <dbl>            <dbl>          <dbl>    <dbl>  <dbl>     <dbl>
##  1  2017     4             64.2           1.39    0.698   2.01   -0.0102
##  2  2017     5           -120.           -1.79    0.517   2.00   -2.82  
##  3  2017     6           -290.           -3.82    0.612   1.99   -5.04  
##  4  2017     7           -541.           -6.44    0.615   1.99   -7.66  
##  5  2017     8           -528.           -6.07    0.519   1.99   -7.10  
##  6  2017     9           -330.           -4.23    0.508   1.99   -5.24  
##  7  2017    10           -348.           -3.91    0.575   1.99   -5.05  
##  8  2017    11           -666.           -7.83    0.599   1.99   -9.02  
##  9  2017    12           -636.           -7.57    0.754   1.99   -9.07  
## 10  2017    13          -1060.          -11.6     0.726   1.99  -13.1   
## # ... with 181 more rows, and 1 more variable: upper_CIs <dbl>
…
